{
  "notes": [
    {
      "id": 1,
      "content": "HTML is easy",
      "date": "2022-1-17T17:30:31.098Z",
      "important": true
    },
    {
      "id": 2,
      "content": "Browser can execute only JavaScript",
      "date": "2022-1-17T18:39:34.091Z",
      "important": true
    },
    {
      "id": 3,
      "content": "GET and POST are the most important methods of HTTP protocol",
      "date": "2022-1-17T19:20:14.298Z",
      "important": true
    },
    {
      "id": 4,
      "content": "ied2",
      "date": "2023-10-27T10:15:43.198Z",
      "important": false
    },
    {
      "id": 7,
      "content": "test2",
      "date": "2023-10-27T10:19:05.508Z",
      "important": false
    },
    {
      "id": 8,
      "content": "Herp Derp",
      "date": "2023-10-24T09:15:06.688Z",
      "important": false
    },
    {
      "id": 9,
      "content": "test3",
      "date": "2023-10-27T10:19:37.365Z",
      "important": false
    },
    {
      "id": 10,
      "content": "test",
      "date": "2023-10-27T10:09:03.400Z",
      "important": true
    },
    {
      "id": 11,
      "content": "test11",
      "date": "2023-10-27T10:09:13.703Z",
      "important": true
    }
  ]
}