{
  "notes": [
    {
      "id": 1,
      "content": "HTML is easy",
      "date": "2022-1-17T17:30:31.098Z",
      "important": false
    },
    {
      "id": 2,
      "content": "Browser can execute only JavaScript",
      "date": "2022-1-17T18:39:34.091Z",
      "important": false
    },
    {
      "id": 3,
      "content": "GET and POST are the most important methods of HTTP protocol",
      "date": "2022-1-17T19:20:14.298Z",
      "important": false
    },
    {
      "id": 4,
      "content": "Herp Derp",
      "date": "2023-10-24T07:50:18.207Z",
      "important": true
    },
    {
      "id": 5,
      "content": "Herp Derp",
      "date": "2023-10-24T07:50:34.463Z",
      "important": true
    },
    {
      "id": 6,
      "content": "Herp Derp",
      "date": "2023-10-24T07:54:35.889Z",
      "important": true
    },
    {
      "id": 7,
      "content": "Herp Derp",
      "date": "2023-10-24T08:31:48.410Z",
      "important": true
    },
    {
      "id": 8,
      "content": "Herp Derp",
      "date": "2023-10-24T09:15:06.688Z",
      "important": true
    }
  ]
}